<?xml version="1.0" encoding="UTF-8" standalone="no"?>
<svg
   width="1024"
   height="48"
   viewBox="0 0 270.93333 12.699999"
   version="1.1"
   id="svg8"
   inkscape:version="1.1.2 (0a00cf5339, 2022-02-04)"
   sodipodi:docname="building_wall.svg"
   xmlns:inkscape="http://www.inkscape.org/namespaces/inkscape"
   xmlns:sodipodi="http://sodipodi.sourceforge.net/DTD/sodipodi-0.dtd"
   xmlns="http://www.w3.org/2000/svg"
   xmlns:svg="http://www.w3.org/2000/svg"
   xmlns:rdf="http://www.w3.org/1999/02/22-rdf-syntax-ns#"
   xmlns:cc="http://creativecommons.org/ns#"
   xmlns:dc="http://purl.org/dc/elements/1.1/">
  <defs
     id="defs2" />
  <sodipodi:namedview
     id="base"
     pagecolor="#ffffff"
     bordercolor="#666666"
     borderopacity="1.0"
     inkscape:pageopacity="0.0"
     inkscape:pageshadow="2"
     inkscape:zoom="1.979899"
     inkscape:cx="377.54451"
     inkscape:cy="-175.26147"
     inkscape:document-units="mm"
     inkscape:current-layer="layer1"
     inkscape:document-rotation="0"
     showgrid="true"
     units="px"
     inkscape:window-width="2560"
     inkscape:window-height="1349"
     inkscape:window-x="1200"
     inkscape:window-y="240"
     inkscape:window-maximized="1"
     inkscape:pagecheckerboard="0">
    <inkscape:grid
       type="xygrid"
       id="grid833"
       spacingx="1.0583333"
       units="px"
       spacingy="1.0583333"
       empspacing="4" />
  </sodipodi:namedview>
  <metadata
     id="metadata5">
    <rdf:RDF>
      <cc:Work
         rdf:about="">
        <dc:format>image/svg+xml</dc:format>
        <dc:type
           rdf:resource="http://purl.org/dc/dcmitype/StillImage" />
      </cc:Work>
    </rdf:RDF>
  </metadata>
  <g
     inkscape:label="Layer 1"
     inkscape:groupmode="layer"
     id="layer1">
    <rect
       style="fill:#ffffff;stroke:none;stroke-width:0.612446;stroke-linecap:square;stroke-linejoin:round;stop-color:#000000"
       id="rect853"
       width="270.93332"
       height="8.4666662"
       x="-2.7364414e-14"
       y="2.1166666"
       rx="1.0463257e-07"
       ry="1.9579352e-06" />
    <rect
       style="fill:#1a1a1a;fill-opacity:1;stroke:none;stroke-width:0.408298;stroke-linecap:square;stroke-linejoin:round;stop-color:#000000"
       id="rect855"
       width="270.93332"
       height="4.2333326"
       x="0"
       y="4.2333336"
       rx="1.0463265e-07"
       ry="1.9579352e-06" />
    <rect
       style="fill:#ffffff;stroke-width:3.17499;stroke-linecap:square;stroke-linejoin:bevel;stop-color:#000000"
       id="rect849-3-6"
       width="4.2333326"
       height="4.2333336"
       x="23.283333"
       y="4.2333322"
       rx="2.1166613"
       ry="2.2297655e-08" />
    <rect
       style="fill:#ffffff;stroke-width:3.17499;stroke-linecap:square;stroke-linejoin:bevel;stop-color:#000000"
       id="rect849-3-6-2"
       width="4.2333326"
       height="4.2333336"
       x="40.216667"
       y="4.2333331"
       rx="2.1166613"
       ry="2.2297655e-08" />
    <rect
       style="fill:#ffffff;stroke-width:3.17499;stroke-linecap:square;stroke-linejoin:bevel;stop-color:#000000"
       id="rect849-3-6-5"
       width="4.2333326"
       height="4.2333336"
       x="57.149998"
       y="4.2333322"
       rx="2.1166613"
       ry="2.2297655e-08" />
    <rect
       style="fill:#ffffff;stroke-width:3.17499;stroke-linecap:square;stroke-linejoin:bevel;stop-color:#000000"
       id="rect849-3-6-8"
       width="4.2333326"
       height="4.2333336"
       x="74.083328"
       y="4.2333326"
       rx="2.1166613"
       ry="2.2297655e-08" />
    <rect
       style="fill:#ffffff;stroke-width:3.17499;stroke-linecap:square;stroke-linejoin:bevel;stop-color:#000000"
       id="rect849-3-6-6"
       width="4.2333326"
       height="4.2333336"
       x="91.01667"
       y="4.2333331"
       rx="2.1166613"
       ry="2.2297655e-08" />
    <rect
       style="fill:#ffffff;stroke-width:3.17499;stroke-linecap:square;stroke-linejoin:bevel;stop-color:#000000"
       id="rect849-3"
       width="4.2333326"
       height="4.2333336"
       x="6.3499999"
       y="4.2333331"
       rx="2.1166613"
       ry="2.2297655e-08" />
    <rect
       style="fill:#ffffff;stroke-width:3.17499;stroke-linecap:square;stroke-linejoin:bevel;stop-color:#000000"
       id="rect849-3-6-28"
       width="4.2333326"
       height="4.2333336"
       x="124.88332"
       y="4.2333331"
       rx="2.1166613"
       ry="2.2297655e-08" />
    <rect
       style="fill:#ffffff;stroke-width:3.17499;stroke-linecap:square;stroke-linejoin:bevel;stop-color:#000000"
       id="rect849-3-6-2-4"
       width="4.2333326"
       height="4.2333336"
       x="141.81665"
       y="4.2333331"
       rx="2.1166613"
       ry="2.2297655e-08" />
    <rect
       style="fill:#ffffff;stroke-width:3.17499;stroke-linecap:square;stroke-linejoin:bevel;stop-color:#000000"
       id="rect849-3-6-5-7"
       width="4.2333326"
       height="4.2333336"
       x="158.74997"
       y="4.2333331"
       rx="2.1166613"
       ry="2.2297655e-08" />
    <rect
       style="fill:#ffffff;stroke-width:3.17499;stroke-linecap:square;stroke-linejoin:bevel;stop-color:#000000"
       id="rect849-3-6-8-2"
       width="4.2333326"
       height="4.2333336"
       x="175.6833"
       y="4.2333331"
       rx="2.1166613"
       ry="2.2297655e-08" />
    <rect
       style="fill:#ffffff;stroke-width:3.17499;stroke-linecap:square;stroke-linejoin:bevel;stop-color:#000000"
       id="rect849-3-6-6-4"
       width="4.2333326"
       height="4.2333336"
       x="192.61664"
       y="4.2333331"
       rx="2.1166613"
       ry="2.2297655e-08" />
    <rect
       style="fill:#ffffff;stroke-width:3.17499;stroke-linecap:square;stroke-linejoin:bevel;stop-color:#000000"
       id="rect849-3-0"
       width="4.2333326"
       height="4.2333336"
       x="107.95"
       y="4.2333331"
       rx="2.1166613"
       ry="2.2297655e-08" />
    <rect
       style="fill:#ffffff;stroke-width:3.17499;stroke-linecap:square;stroke-linejoin:bevel;stop-color:#000000"
       id="rect849-3-6-62"
       width="4.2333326"
       height="4.2333336"
       x="226.48332"
       y="4.2333326"
       rx="2.1166613"
       ry="2.2297655e-08" />
    <rect
       style="fill:#ffffff;stroke-width:3.17499;stroke-linecap:square;stroke-linejoin:bevel;stop-color:#000000"
       id="rect849-3-6-2-9"
       width="4.2333326"
       height="4.2333336"
       x="243.41666"
       y="4.2333336"
       rx="2.1166613"
       ry="2.2297655e-08" />
    <rect
       style="fill:#ffffff;stroke-width:3.17499;stroke-linecap:square;stroke-linejoin:bevel;stop-color:#000000"
       id="rect849-3-6-5-9"
       width="4.2333326"
       height="4.2333336"
       x="260.34998"
       y="4.2333326"
       rx="2.1166613"
       ry="2.2297655e-08" />
    <rect
       style="fill:#ffffff;stroke-width:3.17499;stroke-linecap:square;stroke-linejoin:bevel;stop-color:#000000"
       id="rect849-3-1"
       width="4.2333326"
       height="4.2333336"
       x="209.54999"
       y="4.2333336"
       rx="2.1166613"
       ry="2.2297655e-08" />
  </g>
</svg>
