<?xml version="1.0" encoding="UTF-8" standalone="no"?>
<svg
   xmlns:dc="http://purl.org/dc/elements/1.1/"
   xmlns:cc="http://creativecommons.org/ns#"
   xmlns:rdf="http://www.w3.org/1999/02/22-rdf-syntax-ns#"
   xmlns:svg="http://www.w3.org/2000/svg"
   xmlns="http://www.w3.org/2000/svg"
   xmlns:sodipodi="http://sodipodi.sourceforge.net/DTD/sodipodi-0.dtd"
   xmlns:inkscape="http://www.inkscape.org/namespaces/inkscape"
   width="1024"
   height="32"
   viewBox="0 0 270.93333 8.466666"
   version="1.1"
   id="svg8"
   inkscape:version="1.0.2 (e86c870879, 2021-01-15)"
   sodipodi:docname="office_wall.svg">
  <defs
     id="defs2" />
  <sodipodi:namedview
     id="base"
     pagecolor="#ffffff"
     bordercolor="#666666"
     borderopacity="1.0"
     inkscape:pageopacity="0.0"
     inkscape:pageshadow="2"
     inkscape:zoom="22.4"
     inkscape:cx="25.290423"
     inkscape:cy="15.240493"
     inkscape:document-units="mm"
     inkscape:current-layer="layer1"
     inkscape:document-rotation="0"
     showgrid="true"
     units="px"
     inkscape:window-width="2560"
     inkscape:window-height="1357"
     inkscape:window-x="1200"
     inkscape:window-y="240"
     inkscape:window-maximized="1">
    <inkscape:grid
       type="xygrid"
       id="grid833"
       spacingx="1.0583333"
       units="px"
       spacingy="1.0583333"
       empspacing="4" />
  </sodipodi:namedview>
  <metadata
     id="metadata5">
    <rdf:RDF>
      <cc:Work
         rdf:about="">
        <dc:format>image/svg+xml</dc:format>
        <dc:type
           rdf:resource="http://purl.org/dc/dcmitype/StillImage" />
        <dc:title></dc:title>
      </cc:Work>
    </rdf:RDF>
  </metadata>
  <g
     inkscape:label="Layer 1"
     inkscape:groupmode="layer"
     id="layer1">
    <rect
       style="fill:#b3b3b3;stroke:none;stroke-width:0.612447;stroke-linecap:square;stroke-linejoin:round;stop-color:#000000"
       id="rect853"
       width="270.93332"
       height="6.3499999"
       x="0"
       y="1.0583333"
       rx="1.0463257e-07"
       ry="1.9579352e-06" />
    <rect
       style="fill:#f2f2f2;fill-opacity:1;stroke:none;stroke-width:0.408297;stroke-linecap:square;stroke-linejoin:round;stop-color:#000000"
       id="rect855"
       width="270.93332"
       height="2.1166663"
       x="0"
       y="3.175"
       rx="1.0463265e-07"
       ry="1.9579352e-06" />
    <rect
       style="opacity:1;fill:#b3b3b3;stroke-width:3.175;stroke-linecap:square;stroke-linejoin:bevel;stop-color:#000000"
       id="rect849"
       width="2.1166666"
       height="2.1166666"
       x="24.341658"
       y="3.175"
       rx="2.1166613"
       ry="2.2297655e-08" />
    <rect
       style="opacity:1;fill:#b3b3b3;stroke-width:3.175;stroke-linecap:square;stroke-linejoin:bevel;stop-color:#000000"
       id="rect851"
       width="2.1166666"
       height="2.1166666"
       x="41.274986"
       y="3.175"
       rx="2.1166613"
       ry="2.2297655e-08" />
    <rect
       style="opacity:1;fill:#b3b3b3;stroke-width:3.175;stroke-linecap:square;stroke-linejoin:bevel;stop-color:#000000"
       id="rect856"
       width="2.1166666"
       height="2.1166666"
       x="58.208321"
       y="3.175"
       rx="2.1166613"
       ry="2.2297655e-08" />
    <rect
       style="opacity:1;fill:#b3b3b3;stroke-width:3.175;stroke-linecap:square;stroke-linejoin:bevel;stop-color:#000000"
       id="rect858"
       width="2.1166666"
       height="2.1166666"
       x="75.141655"
       y="3.175"
       rx="2.1166613"
       ry="2.2297655e-08" />
    <rect
       style="opacity:1;fill:#b3b3b3;stroke-width:3.175;stroke-linecap:square;stroke-linejoin:bevel;stop-color:#000000"
       id="rect860"
       width="2.1166666"
       height="2.1166666"
       x="92.074989"
       y="3.175"
       rx="2.1166613"
       ry="2.2297655e-08" />
    <rect
       style="opacity:1;fill:#b3b3b3;stroke-width:3.175;stroke-linecap:square;stroke-linejoin:bevel;stop-color:#000000"
       id="rect862"
       width="2.1166666"
       height="2.1166666"
       x="109.00832"
       y="3.175"
       rx="2.1166613"
       ry="2.2297655e-08" />
    <rect
       style="opacity:1;fill:#b3b3b3;stroke-width:3.175;stroke-linecap:square;stroke-linejoin:bevel;stop-color:#000000"
       id="rect864"
       width="2.1166666"
       height="2.1166666"
       x="125.94166"
       y="3.175"
       rx="2.1166613"
       ry="2.2297655e-08" />
    <rect
       style="opacity:1;fill:#b3b3b3;stroke-width:3.175;stroke-linecap:square;stroke-linejoin:bevel;stop-color:#000000"
       id="rect866"
       width="2.1166666"
       height="2.1166666"
       x="142.87498"
       y="3.175"
       rx="2.1166613"
       ry="2.2297655e-08" />
    <rect
       style="opacity:1;fill:#b3b3b3;stroke-width:3.175;stroke-linecap:square;stroke-linejoin:bevel;stop-color:#000000"
       id="rect868"
       width="2.1166666"
       height="2.1166666"
       x="159.80832"
       y="3.175"
       rx="2.1166613"
       ry="2.2297655e-08" />
    <rect
       style="opacity:1;fill:#b3b3b3;stroke-width:3.175;stroke-linecap:square;stroke-linejoin:bevel;stop-color:#000000"
       id="rect870"
       width="2.1166666"
       height="2.1166666"
       x="176.74165"
       y="3.175"
       rx="2.1166613"
       ry="2.2297655e-08" />
    <rect
       style="opacity:1;fill:#b3b3b3;stroke-width:3.175;stroke-linecap:square;stroke-linejoin:bevel;stop-color:#000000"
       id="rect872"
       width="2.1166666"
       height="2.1166666"
       x="193.67499"
       y="3.175"
       rx="2.1166613"
       ry="2.2297655e-08" />
    <rect
       style="opacity:1;fill:#b3b3b3;stroke-width:3.175;stroke-linecap:square;stroke-linejoin:bevel;stop-color:#000000"
       id="rect874"
       width="2.1166666"
       height="2.1166666"
       x="210.60832"
       y="3.175"
       rx="2.1166613"
       ry="2.2297655e-08" />
    <rect
       style="opacity:1;fill:#b3b3b3;stroke-width:3.175;stroke-linecap:square;stroke-linejoin:bevel;stop-color:#000000"
       id="rect876"
       width="2.1166666"
       height="3.175"
       x="227.54166"
       y="3.175"
       rx="2.1166613"
       ry="2.2297655e-08" />
    <rect
       style="opacity:1;fill:#b3b3b3;stroke-width:3.175;stroke-linecap:square;stroke-linejoin:bevel;stop-color:#000000"
       id="rect878"
       width="2.1166666"
       height="2.1166666"
       x="244.47499"
       y="3.175"
       rx="2.1166613"
       ry="2.2297655e-08" />
    <rect
       style="opacity:1;fill:#b3b3b3;stroke-width:3.175;stroke-linecap:square;stroke-linejoin:bevel;stop-color:#000000"
       id="rect880"
       width="2.1166666"
       height="2.1166666"
       x="261.40833"
       y="3.175"
       rx="2.1166613"
       ry="2.2297655e-08" />
    <rect
       style="fill:#b3b3b3;stroke-width:3.175;stroke-linecap:square;stroke-linejoin:bevel;stop-color:#000000"
       id="rect849-3"
       width="2.1166666"
       height="2.1166666"
       x="7.4083333"
       y="3.1750002"
       rx="2.1166613"
       ry="2.2297655e-08" />
  </g>
</svg>
