<?xml version="1.0" encoding="UTF-8" standalone="no"?>
<svg
   xmlns:dc="http://purl.org/dc/elements/1.1/"
   xmlns:cc="http://creativecommons.org/ns#"
   xmlns:rdf="http://www.w3.org/1999/02/22-rdf-syntax-ns#"
   xmlns:svg="http://www.w3.org/2000/svg"
   xmlns="http://www.w3.org/2000/svg"
   xmlns:sodipodi="http://sodipodi.sourceforge.net/DTD/sodipodi-0.dtd"
   xmlns:inkscape="http://www.inkscape.org/namespaces/inkscape"
   width="256"
   height="256"
   viewBox="0 0 67.733332 67.733335"
   version="1.1"
   id="svg8"
   inkscape:version="1.0.2 (e86c870879, 2021-01-15)"
   sodipodi:docname="vending_machine.svg">
  <defs
     id="defs2" />
  <sodipodi:namedview
     id="base"
     pagecolor="#ffffff"
     bordercolor="#666666"
     borderopacity="1.0"
     inkscape:pageopacity="0"
     inkscape:pageshadow="2"
     inkscape:zoom="3.959798"
     inkscape:cx="78.990901"
     inkscape:cy="130.46261"
     inkscape:document-units="px"
     inkscape:current-layer="layer2"
     inkscape:document-rotation="0"
     showgrid="true"
     units="px"
     inkscape:window-width="2560"
     inkscape:window-height="1357"
     inkscape:window-x="1200"
     inkscape:window-y="240"
     inkscape:window-maximized="1"
     inkscape:snap-grids="true">
    <inkscape:grid
       type="xygrid"
       id="grid833"
       units="px"
       empspacing="4"
       spacingy="2.1166667"
       spacingx="2.1166667" />
  </sodipodi:namedview>
  <metadata
     id="metadata5">
    <rdf:RDF>
      <cc:Work
         rdf:about="">
        <dc:format>image/svg+xml</dc:format>
        <dc:type
           rdf:resource="http://purl.org/dc/dcmitype/StillImage" />
        <dc:title></dc:title>
      </cc:Work>
    </rdf:RDF>
  </metadata>
  <g
     inkscape:label="Pot"
     inkscape:groupmode="layer"
     id="layer1" />
  <g
     inkscape:groupmode="layer"
     id="layer2"
     inkscape:label="Plant">
    <rect
       style="fill:#000000;fill-opacity:1;stroke:#000000;stroke-width:1.05833;stroke-linecap:round;stroke-linejoin:bevel;stroke-miterlimit:4;stroke-dasharray:none;stroke-opacity:1;stop-color:#000000"
       id="rect1055"
       width="6.3499961"
       height="6.3499999"
       x="50.799999"
       y="52.916664"
       rx="2.1166666"
       ry="1.9793056" />
    <rect
       style="fill:#aaffee;fill-opacity:1;stroke:#dbe3e2;stroke-width:0.52916667;stroke-linecap:round;stroke-linejoin:bevel;stroke-miterlimit:4;stroke-dasharray:none;stroke-opacity:1;stop-color:#000000"
       id="rect1053"
       width="38.099998"
       height="6.3499999"
       x="10.583334"
       y="52.916668"
       rx="2.1166666"
       ry="1.9793056" />
    <rect
       style="fill:#ff0000;fill-opacity:1;stroke:#000000;stroke-width:1.05833;stroke-linecap:round;stroke-linejoin:bevel;stroke-miterlimit:4;stroke-dasharray:none;stroke-opacity:1;stop-color:#000000"
       id="rect1051"
       width="50.799995"
       height="8.4666653"
       x="8.4666672"
       y="46.566666"
       rx="2.1166666"
       ry="1.9793061" />
    <rect
       style="fill:#333333;fill-opacity:1;stroke:#000000;stroke-width:1.05833;stroke-linecap:round;stroke-linejoin:bevel;stroke-miterlimit:4;stroke-dasharray:none;stroke-opacity:1;stop-color:#000000"
       id="rect1049"
       width="50.799999"
       height="42.333332"
       x="8.4666672"
       y="8.4666672"
       rx="2.1166656"
       ry="2.1166663" />
    <rect
       style="fill:#000000;stroke-width:2.11667;stroke-linecap:round;stroke-linejoin:bevel;stop-color:#000000"
       id="rect836"
       width="2.1166666"
       height="29.633333"
       x="16.933334"
       y="14.816667"
       rx="3.7838063e-07"
       ry="3.7838063e-07" />
    <rect
       style="fill:#000000;stroke-width:2.11667;stroke-linecap:round;stroke-linejoin:bevel;stop-color:#000000"
       id="rect836-3"
       width="2.1166666"
       height="29.633333"
       x="48.683334"
       y="14.816667"
       rx="3.7838063e-07"
       ry="3.7838063e-07" />
    <rect
       style="fill:#000000;stroke-width:2.11667;stroke-linecap:round;stroke-linejoin:bevel;stop-color:#000000"
       id="rect836-6"
       width="2.1166666"
       height="29.633333"
       x="23.283333"
       y="14.816667"
       rx="3.7838063e-07"
       ry="3.7838063e-07" />
    <rect
       style="fill:#000000;stroke-width:2.11667;stroke-linecap:round;stroke-linejoin:bevel;stop-color:#000000"
       id="rect836-7"
       width="2.1166666"
       height="29.633333"
       x="35.983334"
       y="14.816667"
       rx="3.7838063e-07"
       ry="3.7838063e-07" />
    <rect
       style="fill:#000000;stroke-width:2.11667;stroke-linecap:round;stroke-linejoin:bevel;stop-color:#000000"
       id="rect836-5"
       width="2.1166666"
       height="29.633333"
       x="29.633333"
       y="14.816667"
       rx="3.7838063e-07"
       ry="3.7838063e-07" />
    <rect
       style="fill:#000000;stroke-width:2.11667;stroke-linecap:round;stroke-linejoin:bevel;stop-color:#000000"
       id="rect836-62"
       width="2.1166666"
       height="29.633333"
       x="42.333336"
       y="14.816667"
       rx="3.7838063e-07"
       ry="3.7838063e-07" />
  </g>
</svg>
