<?xml version="1.0" encoding="UTF-8" standalone="no"?>
<svg
   width="256"
   height="256"
   viewBox="0 0 67.733333 67.733333"
   version="1.1"
   id="svg8"
   inkscape:version="1.1.2 (0a00cf5339, 2022-02-04)"
   sodipodi:docname="customs.svg"
   xmlns:inkscape="http://www.inkscape.org/namespaces/inkscape"
   xmlns:sodipodi="http://sodipodi.sourceforge.net/DTD/sodipodi-0.dtd"
   xmlns="http://www.w3.org/2000/svg"
   xmlns:svg="http://www.w3.org/2000/svg"
   xmlns:rdf="http://www.w3.org/1999/02/22-rdf-syntax-ns#"
   xmlns:cc="http://creativecommons.org/ns#"
   xmlns:dc="http://purl.org/dc/elements/1.1/">
  <defs
     id="defs2" />
  <sodipodi:namedview
     id="base"
     pagecolor="#ffffff"
     bordercolor="#666666"
     borderopacity="1.0"
     inkscape:pageopacity="0"
     inkscape:pageshadow="2"
     inkscape:zoom="1.979899"
     inkscape:cx="76.519055"
     inkscape:cy="207.58635"
     inkscape:document-units="px"
     inkscape:current-layer="layer2"
     inkscape:document-rotation="0"
     showgrid="true"
     units="px"
     inkscape:window-width="2560"
     inkscape:window-height="1349"
     inkscape:window-x="1200"
     inkscape:window-y="240"
     inkscape:window-maximized="1"
     inkscape:snap-grids="true"
     inkscape:pagecheckerboard="0">
    <inkscape:grid
       type="xygrid"
       id="grid833"
       units="px"
       empspacing="4"
       spacingy="2.1166667"
       spacingx="2.1166667" />
  </sodipodi:namedview>
  <metadata
     id="metadata5">
    <rdf:RDF>
      <cc:Work
         rdf:about="">
        <dc:format>image/svg+xml</dc:format>
        <dc:type
           rdf:resource="http://purl.org/dc/dcmitype/StillImage" />
      </cc:Work>
    </rdf:RDF>
  </metadata>
  <g
     inkscape:groupmode="layer"
     id="layer2"
     inkscape:label="White Shadow"
     style="display:inline" />
  <g
     inkscape:groupmode="layer"
     id="layer3"
     inkscape:label="Text"
     style="display:none" />
  <g
     inkscape:label="Graphic"
     inkscape:groupmode="layer"
     id="layer1"
     style="display:inline">
    <g
       id="g24556"
       transform="matrix(0.85767003,0,0,0.85767003,4.8202728,2.9970299)"
       style="stroke-width:1.16595">
      <path
         style="opacity:0.997213;fill:#000000;stroke:#000000;stroke-width:0.616982;stroke-linejoin:round;stroke-miterlimit:4;stroke-dasharray:none;stroke-opacity:0.999964;stop-color:#000000"
         d="M 38.1,29.633333 21.166666,46.566666 C 16.933334,50.800001 21.166667,55.033334 25.4,50.8 L 38.1,38.1 V 50.8 L 55.033333,29.633333 Z"
         id="path21144"
         sodipodi:nodetypes="ccccccc" />
      <path
         style="opacity:0.997213;fill:#000000;stroke:#000000;stroke-width:0.616982;stroke-linejoin:round;stroke-miterlimit:4;stroke-dasharray:none;stroke-opacity:0.999964;stop-color:#000000"
         d="M 59.266666,29.633333 42.333333,50.8 h 16.933333 v 4.233333 H 38.1 v 4.233333 H 63.499999 V 33.866667 Z"
         id="path21146" />
      <path
         style="opacity:0.997213;fill:#000000;stroke:#000000;stroke-width:0.616982;stroke-linejoin:round;stroke-miterlimit:4;stroke-dasharray:none;stroke-opacity:0.999964;stop-color:#000000"
         d="m 33.866667,55.033334 c 0,4.233333 0,4.233334 -2.116667,4.233334 H 10.583334 c -2.1166672,0 -2.1166672,0 -2.1166672,-4.233334 z"
         id="path21148"
         sodipodi:nodetypes="ccccc" />
      <path
         style="opacity:0.997213;fill:#000000;stroke:#000000;stroke-width:0.616982;stroke-linejoin:round;stroke-miterlimit:4;stroke-dasharray:none;stroke-opacity:0.999964;stop-color:#000000"
         d="m 8.4666668,55.033334 c -4.2333329,0 -4.2333329,0 -4.2333329,-2.116667 V 31.75 c 0,-2.116667 0,-2.116667 4.2333339,-2.116667 z"
         id="path21148-1"
         sodipodi:nodetypes="ccccc" />
      <path
         style="opacity:0.997213;fill:#000000;stroke:#000000;stroke-width:0.616982;stroke-linejoin:round;stroke-miterlimit:4;stroke-dasharray:none;stroke-opacity:0.999964;stop-color:#000000"
         d="M 38.100001,6.3500001 H 59.266667 V 10.583333 H 42.333334 Z"
         id="path21152" />
      <path
         style="opacity:0.997213;fill:#000000;stroke:#000000;stroke-width:0.616982;stroke-linejoin:miter;stroke-miterlimit:4;stroke-dasharray:none;stroke-opacity:0.999964;stop-color:#000000"
         d="M 42.333333,12.7 38.1,16.933333 h 4.233333 c 0,12.7 16.933333,12.7 16.933333,0 V 12.7 Z"
         id="path21154"
         sodipodi:nodetypes="cccccc" />
    </g>
    <text
       xml:space="preserve"
       style="font-size:10.3114px;line-height:1.25;font-family:Archivo;-inkscape-font-specification:'Archivo, Normal';font-variant-ligatures:none;stroke-width:0.264583;stroke-miterlimit:4;stroke-dasharray:none"
       x="8.3532562"
       y="61.725937"
       id="text27398"><tspan
         sodipodi:role="line"
         id="tspan27396"
         style="font-style:normal;font-variant:normal;font-weight:normal;font-stretch:normal;font-size:10.3114px;font-family:'Black Ops One';-inkscape-font-specification:'Black Ops One, Normal';font-variant-ligatures:none;font-variant-caps:normal;font-variant-numeric:normal;font-variant-east-asian:normal;stroke-width:0.264583;stroke-miterlimit:4;stroke-dasharray:none"
         x="8.3532562"
         y="61.725937">CUSTOMS</tspan></text>
    <rect
       style="opacity:0.997213;fill:none;stroke:#000000;stroke-width:2.11667;stroke-opacity:0.999964;stop-color:#000000"
       id="rect867"
       width="59.266666"
       height="59.266666"
       x="4.2333331"
       y="4.2333331"
       rx="1.9135486"
       ry="1.9476959" />
  </g>
</svg>
