<?xml version="1.0" encoding="UTF-8" standalone="no"?>
<svg
   width="256"
   height="256"
   viewBox="0 0 67.733332 67.733335"
   version="1.1"
   id="svg8"
   inkscape:version="1.1.2 (0a00cf5339, 2022-02-04)"
   sodipodi:docname="hand_dryer.svg"
   xmlns:inkscape="http://www.inkscape.org/namespaces/inkscape"
   xmlns:sodipodi="http://sodipodi.sourceforge.net/DTD/sodipodi-0.dtd"
   xmlns:xlink="http://www.w3.org/1999/xlink"
   xmlns="http://www.w3.org/2000/svg"
   xmlns:svg="http://www.w3.org/2000/svg"
   xmlns:rdf="http://www.w3.org/1999/02/22-rdf-syntax-ns#"
   xmlns:cc="http://creativecommons.org/ns#"
   xmlns:dc="http://purl.org/dc/elements/1.1/">
  <defs
     id="defs2">
    <linearGradient
       inkscape:collect="always"
       id="linearGradient22388">
      <stop
         style="stop-color:#666666;stop-opacity:1;"
         offset="0"
         id="stop22384" />
      <stop
         style="stop-color:#666666;stop-opacity:0;"
         offset="1"
         id="stop22386" />
    </linearGradient>
    <linearGradient
       inkscape:collect="always"
       id="linearGradient21890">
      <stop
         style="stop-color:#666666;stop-opacity:1;"
         offset="0"
         id="stop21886" />
      <stop
         style="stop-color:#333333;stop-opacity:1"
         offset="1"
         id="stop21888" />
    </linearGradient>
    <radialGradient
       inkscape:collect="always"
       xlink:href="#linearGradient21890"
       id="radialGradient21892"
       cx="33.866703"
       cy="14.816663"
       fx="33.866703"
       fy="14.816663"
       r="17.462497"
       gradientTransform="matrix(2.2004777e-7,0.12121214,-2.8484852,0,76.071702,10.711611)"
       gradientUnits="userSpaceOnUse" />
    <radialGradient
       inkscape:collect="always"
       xlink:href="#linearGradient22388"
       id="radialGradient22390"
       cx="33.866684"
       cy="3.9687479"
       fx="33.866684"
       fy="3.9687479"
       r="17.462498"
       gradientTransform="matrix(-1.9393942,0,1.0370254e-5,-0.12121215,99.547476,6.8310599)"
       gradientUnits="userSpaceOnUse" />
  </defs>
  <sodipodi:namedview
     id="base"
     pagecolor="#ffffff"
     bordercolor="#666666"
     borderopacity="1.0"
     inkscape:pageopacity="0"
     inkscape:pageshadow="2"
     inkscape:zoom="2.8"
     inkscape:cx="108.03571"
     inkscape:cy="16.785714"
     inkscape:document-units="px"
     inkscape:current-layer="layer1"
     inkscape:document-rotation="0"
     showgrid="true"
     units="px"
     inkscape:window-width="2560"
     inkscape:window-height="1349"
     inkscape:window-x="1200"
     inkscape:window-y="240"
     inkscape:window-maximized="1"
     inkscape:snap-grids="true"
     inkscape:pagecheckerboard="0">
    <inkscape:grid
       type="xygrid"
       id="grid833"
       units="px"
       empspacing="4"
       spacingy="1.0583333"
       spacingx="1.0583333" />
  </sodipodi:namedview>
  <metadata
     id="metadata5">
    <rdf:RDF>
      <cc:Work
         rdf:about="">
        <dc:format>image/svg+xml</dc:format>
        <dc:type
           rdf:resource="http://purl.org/dc/dcmitype/StillImage" />
      </cc:Work>
    </rdf:RDF>
  </metadata>
  <g
     inkscape:label="Desk"
     inkscape:groupmode="layer"
     id="layer1">
    <rect
       style="fill:#333333;stroke:#1a1a1a;stroke-width:1.05833334;stroke-linecap:round;stroke-linejoin:round;stroke-opacity:0.999962;stop-color:#000000;stroke-miterlimit:4;stroke-dasharray:none"
       id="rect932"
       width="33.866665"
       height="12.7"
       x="16.933332"
       y="4.2333331"
       rx="2.1166692"
       ry="1.8520833" />
    <rect
       style="fill:url(#radialGradient21892);stroke:#1a1a1a;stroke-width:1.05833;stroke-linecap:round;stroke-linejoin:round;stroke-miterlimit:4;stroke-dasharray:none;stroke-opacity:0.999962;stop-color:#000000;fill-opacity:1"
       id="rect1022"
       width="33.866665"
       height="4.2333331"
       x="16.933332"
       y="12.7"
       rx="2.1166692"
       ry="1.8520833" />
    <path
       id="rect1024"
       style="fill:url(#radialGradient22390);stroke:#1a1a1a;stroke-width:1.05833;stroke-linecap:round;stroke-linejoin:round;stroke-opacity:0.999962;stop-color:#000000;fill-opacity:1"
       d="m 19.050002,4.2333331 h 29.633326 c 1.172635,0 2.116669,0.8260292 2.116669,1.8520833 v 1.5874999 c 0,1.0260542 -0.944034,1.8520833 -2.116669,1.8520833 l -2.187732,0 c -4.162264,-2.1166665 -8.395597,-2.1166665 -12.62893,1e-7 -4.233334,-2.1166666 -8.466667,-2.1166666 -12.676109,-1e-7 l -2.140555,0 c -1.172635,0 -2.11667,-0.8260291 -2.11667,-1.8520833 V 6.0854164 c 0,-1.0260541 0.944035,-1.8520833 2.11667,-1.8520833 z"
       sodipodi:nodetypes="ssssscccssss" />
    <text
       xml:space="preserve"
       style="font-style:normal;font-variant:normal;font-weight:normal;font-stretch:normal;font-size:2.57663px;line-height:1.25;font-family:Anton;-inkscape-font-specification:Anton;font-variant-ligatures:none;fill:#ffffff;stroke-width:0.264583"
       x="20.576815"
       y="15.904954"
       id="text2456"><tspan
         sodipodi:role="line"
         id="tspan2454"
         style="font-style:normal;font-variant:normal;font-weight:normal;font-stretch:normal;font-family:Anton;-inkscape-font-specification:Anton;fill:#ffffff;stroke-width:0.264583"
         x="20.576815"
         y="15.904954">AIR DRYER </tspan></text>
  </g>
  <g
     inkscape:groupmode="layer"
     id="layer2"
     inkscape:label="Display" />
</svg>
